Tidy Survey Analysis in R Using the srvyr Package
…
---
## `survey_count` Example

- Cross-tab of population in each age group and gender

```r
anes_des %>%
   survey_count(AgeGroup, Gender, name="N")
```

```
## # A tibble: 21 × 4
##    AgeGroup Gender         N     N_se
##    <fct>    <fct>      <dbl>    <dbl>
##  1 18-29    Male   21600792. 1418333.
##  2 18-29    Female 22193812. 1766188.
##  3 18-29    <NA>      65204.   56033.
##  4 30-39    Male   19848178. 1077514.
##  5 30-39    Female 19780778. 1158766.
##  6 30-39    <NA>     118195.   62999.
##  7 40-49    Male   17915676. 1123493.
##  8 40-49    Female 18932548.  946369.
##  9 40-49    <NA>      71911.   55174.
## 10 50-59    Male   19054298. 1029844.
## # … with 11 more rows
```
…
